{
  "Version": "2012-10-17",
  "Statement": [
    {
      "Effect": "Allow",
      "Action": [
        "acm:DescribeCertificate",
        "acm:GetCertificate",
        "acm:ListTagsForCertificate"
      ],
      "Resource": "arn:aws:acm:*:640753244498:certificate/*"
    },
    {
      "Effect": "Allow",
      "Action": [
        "ec2:CreateTags",
        "ec2:DeleteTags",
        "ec2:*SecurityGroup*",
        "ecs:CreateService",
        "ecs:DeleteAttributes",
        "ecs:DeleteService",
        "ecs:DeleteTaskSet",
        "ecs:Describe*",
        "ecs:List*",
        "ecs:PutAttributes",
        "ecs:RunTask",
        "ecs:StartTask",
        "ecs:StopTask",
        "ecs:SubmitAttachmentStateChanges",
        "ecs:SubmitTaskStateChange",
        "ecs:TagResource",
        "ecs:UntagResource",
        "ecs:UpdateService",
        "ecs:UpdateServicePrimaryTaskSet",
        "ecs:UpdateTaskSet",
        "secretsmanager:CreateSecret",
        "secretsmanager:DeleteResourcePolicy",
        "secretsmanager:DeleteSecret",
        "secretsmanager:DescribeSecret",
        "secretsmanager:GetResourcePolicy",
        "secretsmanager:GetSecretValue",
        "secretsmanager:ListSecretVersionIds",
        "secretsmanager:PutResourcePolicy",
        "secretsmanager:PutSecretValue",
        "secretsmanager:TagResource",
        "secretsmanager:UntagResource",
        "secretsmanager:UpdateSecret",
        "secretsmanager:UpdateSecretVersionStage",
        "secretsmanager:ValidateResourcePolicy"
      ],
      "Resource": [
        "arn:aws:ec2:*:640753244498:security-group/*",
        "arn:aws:ecs:*:640753244498:capacity-provider/*",
        "arn:aws:ecs:*:640753244498:cluster/*",
        "arn:aws:ecs:*:640753244498:container-instance/*/*",
        "arn:aws:ecs:*:640753244498:service/*/*",
        "arn:aws:ecs:*:640753244498:task-definition/*:*",
        "arn:aws:ecs:*:640753244498:task-set/*/*/*",
        "arn:aws:ecs:*:640753244498:task/*/*",
        "arn:aws:ec2:*:640753244498:vpc/*",
        "arn:aws:secretsmanager:*:640753244498:secret:*"
      ]
    },
    {
      "Effect": "Allow",
      "Action": [
        "dynamodb:ListTables",
        "dynamodb:ListStreams",
        "dynamodb:Describe*",
        "ecr:GetRegistryPolicy",
        "acm:ListCertificates",
        "ec2:CreateSecurityGroup",
        "ec2:DeleteSecurityGroup",
        "ec2:Describe*",
        "ecr:Describe*",
        "ecr:GetAuthorizationToken",
        "ecr:GetRegistryScanningConfiguration",
        "ecs:CreateTaskSet",
        "ecs:DeregisterTaskDefinition",
        "ecs:DescribeTaskDefinition",
        "ecs:List*",
        "ecs:RegisterTaskDefinition",
        "elasticloadbalancing:Describe*",
        "logs:DescribeLogGroups",
        "rds:DescribeDBInstances",
        "rds:ListTagsForResource",
        "route53:ListHostedZones",
        "route53:GetHostedZone",
        "route53:ListResourceRecordSets",
        "route53:ListTagsForResource",
        "s3:List*",
        "secretsmanager:GetRandomPassword",
        "secretsmanager:ListSecrets",
        "servicediscovery:CreateService",
        "servicediscovery:DeleteService",
        "servicediscovery:Get*",
        "servicediscovery:List*",
        "servicediscovery:TagResource",
        "servicediscovery:UntagResource"
      ],
      "Resource": "*"
    },
    {
      "Effect": "Allow",
      "Action": [
        "iam:AttachRolePolicy",
        "iam:CreatePolicy",
        "iam:CreatePolicyVersion",
        "iam:CreateRole",
        "iam:CreateServiceLinkedRole",
        "iam:DeleteInstanceProfile",
        "iam:DeletePolicy",
        "iam:DeletePolicyVersion",
        "iam:DeleteRole*",
        "iam:DeleteServiceLinkedRole",
        "iam:DetachRolePolicy",
        "iam:Get*",
        "iam:ListAttachedRolePolicies",
        "iam:ListInstance*",
        "iam:ListPolicy*",
        "iam:ListPolicyVersions",
        "iam:ListRole*",
        "iam:PassRole",
        "iam:PutRolePermissionsBoundary",
        "iam:PutRolePolicy",
        "iam:RemoveRoleFromInstanceProfile",
        "iam:SetDefaultPolicyVersion",
        "iam:TagInstanceProfile",
        "iam:TagPolicy",
        "iam:TagRole",
        "iam:UntagInstanceProfile",
        "iam:UntagPolicy",
        "iam:UntagRole",
        "iam:UpdateAssumeRolePolicy",
        "iam:UpdateLoginProfile",
        "iam:UpdateRole",
        "iam:UpdateRoleDescription"
      ],
      "Resource": [
        "arn:aws:acm:*:640753244498:certificate/*",
        "arn:aws:iam::640753244498:instance-profile/*",
        "arn:aws:iam::640753244498:role/*",
        "arn:aws:iam::640753244498:user/*",
        "arn:aws:iam::640753244498:policy/*"
      ]
    },
    {
      "Effect": "Allow",
      "Action": [
        "ec2:AttachNetworkInterface",
        "ec2:CreateNetworkInterface*",
        "ec2:DeleteNetworkInterface*",
        "ec2:DetachNetworkInterface",
        "ec2:ModifyNetworkInterfaceAttribute",
        "ec2:ResetNetworkInterfaceAttribute"
      ],
      "Resource": [
        "arn:aws:ec2:*:640753244498:network-interface/*",
        "arn:aws:ec2:*:640753244498:instance/*",
        "arn:aws:ec2:*:640753244498:subnet/*",
        "arn:aws:ec2:*:640753244498:security-group/*"
      ]
    },
    {
      "Effect": "Allow",
      "Action": [
        "application-autoscaling:RegisterScalableTarget",
        "application-autoscaling:DeregisterScalableTarget",
        "application-autoscaling:DeleteScalingPolicy",
        "application-autoscaling:Describe*",
        "application-autoscaling:PutScalingPolicy",
        "application-autoscaling:PutScheduledAction"
      ],
      "Resource": "*"
    },
    {
      "Effect": "Allow",
      "Action": [
        "ecr:BatchCheckLayerAvailability",
        "ecr:BatchDeleteImage",
        "ecr:BatchGetImage",
        "ecr:BatchGetRepositoryScanningConfiguration",
        "ecr:CompleteLayerUpload",
        "ecr:Describe*",
        "ecr:Get*",
        "ecr:InitiateLayerUpload",
        "ecr:List*",
        "ecr:PutImage",
        "ecr:ReplicateImage",
        "ecr:StartImageScan",
        "ecr:StartLifecyclePolicyPreview",
        "ecr:TagResource",
        "ecr:UntagResource",
        "ecr:UploadLayerPart"
      ],
      "Resource": "arn:aws:ecr:*:640753244498:repository/*"
    },
    {
      "Sid": "VisualEditor0",
      "Effect": "Allow",
      "Action": [
        "elasticloadbalancing:ModifyListener",
        "elasticloadbalancing:RegisterTargets",
        "elasticloadbalancing:SetIpAddressType",
        "elasticloadbalancing:SetRulePriorities",
        "elasticloadbalancing:DescribeLoadBalancers",
        "elasticloadbalancing:RemoveTags",
        "elasticloadbalancing:DescribeListeners",
        "elasticloadbalancing:CreateRule",
        "elasticloadbalancing:DescribeListenerCertificates",
        "elasticloadbalancing:ModifyTargetGroupAttributes",
        "elasticloadbalancing:DeleteRule",
        "elasticloadbalancing:DescribeSSLPolicies",
        "elasticloadbalancing:DescribeTags",
        "elasticloadbalancing:CreateTargetGroup",
        "elasticloadbalancing:DeregisterTargets",
        "elasticloadbalancing:SetSubnets",
        "elasticloadbalancing:DeleteTargetGroup",
        "elasticloadbalancing:DescribeLoadBalancerAttributes",
        "elasticloadbalancing:DescribeTargetGroupAttributes",
        "elasticloadbalancing:ModifyRule",
        "elasticloadbalancing:DescribeAccountLimits",
        "elasticloadbalancing:AddTags",
        "elasticloadbalancing:DescribeTargetHealth",
        "elasticloadbalancing:SetSecurityGroups",
        "elasticloadbalancing:DescribeTargetGroups",
        "elasticloadbalancing:DescribeRules",
        "elasticloadbalancing:ModifyTargetGroup",
        "elasticloadbalancing:AddListenerCertificates",
        "elasticloadbalancing:RemoveListenerCertificates"
      ],
      "Resource": "*"
    }
  ]
}

