{
  "Version": "2012-10-17",
  "Statement": [
    {
      "Sid": "VisualEditor0",
      "Effect": "Allow",
      "Action": [
        "ec2:AssignPrivateIpAddresses",
        "ec2:AssociateRouteTable",
        "ec2:CreateRoute",
        "ec2:CreateRouteTable",
        "ec2:CreateTags",
        "ec2:DeleteRoute",
        "ec2:DeleteRouteTable",
        "ec2:DeleteTags",
        "ec2:DescribeRouteTables",
        "ec2:DisassociateRouteTable",
        "ec2:ModifyInstanceAttribute",
        "ec2:MonitorInstances",
        "ec2:RebootInstances",
        "ec2:ReplaceRoute",
        "ec2:ReplaceRouteTableAssociation",
        "ec2:RunInstances",
        "ec2:StartInstances",
        "ec2:StopInstances",
        "ec2:TerminateInstances",
        "ec2:UnassignPrivateIpAddresses",
        "ec2:UnmonitorInstances"
      ],
      "Resource": [
        "arn:aws:ec2:*:640753244498:local-gateway-route-table-virtual-interface-group-association/*",
        "arn:aws:ec2:*:640753244498:local-gateway-route-table/*",
        "arn:aws:elastic-inference:*:640753244498:elastic-inference-accelerator/*",
        "arn:aws:ec2:*:640753244498:local-gateway-virtual-interface-group/*",
        "arn:aws:ec2:*:640753244498:vpc/*",
        "arn:aws:ec2:*::snapshot/*",
        "arn:aws:ec2:*:640753244498:internet-gateway/*",
        "arn:aws:ec2:*:640753244498:placement-group/*",
        "arn:aws:ec2:*:640753244498:capacity-reservation/*",
        "arn:aws:ec2:*:640753244498:key-pair/*",
        "arn:aws:ec2:*:640753244498:replace-root-volume-task/*",
        "arn:aws:ec2:*:640753244498:elastic-gpu/*",
        "arn:aws:ec2:*::image/*",
        "arn:aws:ec2:*:640753244498:security-group/*",
        "arn:aws:ec2:*:640753244498:volume/*",
        "arn:aws:ec2:*:640753244498:local-gateway-route-table-vpc-association/*",
        "arn:aws:ec2:*:640753244498:elastic-ip/*",
        "arn:aws:ec2:*:640753244498:security-group-rule/*",
        "arn:aws:ec2:*:640753244498:network-interface/*",
        "arn:aws:ec2:*:640753244498:instance/*",
        "arn:aws:ec2:*:640753244498:route-table/*",
        "arn:aws:ec2:*:640753244498:local-gateway-virtual-interface/*",
        "arn:aws:ec2:*:640753244498:local-gateway/*",
        "arn:aws:ec2:*:640753244498:launch-template/*",
        "arn:aws:ec2:*:640753244498:natgateway/*",
        "arn:aws:ec2:*:640753244498:subnet/*"
      ]
    },
    {
      "Sid": "VisualEditor1",
      "Effect": "Allow",
      "Action": "ec2:Describe*",
      "Resource": "*"
    },
    {
      "Sid": "VisualEditor2",
      "Effect": "Allow",
      "Action": [
        "ec2:RevokeSecurityGroupIngress",
        "ec2:AuthorizeSecurityGroupEgress",
        "ec2:AuthorizeSecurityGroupIngress",
        "ec2:UpdateSecurityGroupRuleDescriptionsEgress",
        "ec2:CreateSecurityGroup",
        "ec2:RevokeSecurityGroupEgress",
        "ec2:DeleteSecurityGroup",
        "ec2:ModifySecurityGroupRules",
        "ec2:ApplySecurityGroupsToClientVpnTargetNetwork",
        "ec2:UpdateSecurityGroupRuleDescriptionsIngress"
      ],
      "Resource": [
        "arn:aws:ec2:*:640753244498:prefix-list/*",
        "arn:aws:ec2:*:640753244498:security-group-rule/*",
        "arn:aws:ec2:*:640753244498:vpc/*",
        "arn:aws:ec2:*:640753244498:security-group/*"
      ]
    },
    {
      "Sid": "VisualEditor3",
      "Effect": "Allow",
      "Action": "iam:RemoveRoleFromInstanceProfile",
      "Resource": [
        "arn:aws:iam::640753244498:instance-profile/*",
        "arn:aws:iam::640753244498:role/*",
        "arn:aws:iam::640753244498:policy/*"
      ]
    },
    {
      "Sid": "VisualEditor4",
      "Effect": "Allow",
      "Action": [
        "ec2:DescribeSecurityGroupReferences",
        "ec2:DescribeStaleSecurityGroups"
      ],
      "Resource": [
        "arn:aws:ec2:*:640753244498:prefix-list/*",
        "arn:aws:ec2:*:640753244498:security-group-rule/*",
        "arn:aws:ec2:*:640753244498:vpc/*",
        "arn:aws:ec2:*:640753244498:security-group/*"
      ]
    },
    {
      "Sid": "VisualEditor5",
      "Effect": "Allow",
      "Action": [
        "iam:Get*",
        "iam:List*",
        "iam:AddRoleToInstanceProfile",
        "iam:AttachRolePolicy",
        "iam:CreateInstanceProfile",
        "iam:CreatePolicy",
        "iam:CreatePolicyVersion",
        "iam:CreateRole",
        "iam:DeleteInstanceProfile",
        "iam:DeletePolicy",
        "iam:DeletePolicyVersion",
        "iam:DeleteRole",
        "iam:DeleteRolePermissionsBoundary",
        "iam:DeleteRolePolicy",
        "iam:DetachRolePolicy",
        "iam:GetInstanceProfile",
        "iam:GetPolicy",
        "iam:GetPolicyVersion",
        "iam:GetRole",
        "iam:GetRolePolicy",
        "iam:PassRole",
        "iam:PutRolePermissionsBoundary",
        "iam:PutRolePolicy",
        "iam:PutUserPolicy",
        "iam:RemoveRoleFromInstanceProfile",
        "iam:SetDefaultPolicyVersion",
        "iam:TagInstanceProfile",
        "iam:TagPolicy",
        "iam:TagRole",
        "iam:UntagInstanceProfile",
        "iam:UntagPolicy",
        "iam:UntagRole",
        "iam:UpdateAssumeRolePolicy",
        "iam:UpdateLoginProfile",
        "iam:UpdateRole",
        "iam:UpdateRoleDescription"
      ],
      "Resource": [
        "arn:aws:iam::640753244498:instance-profile/*",
        "arn:aws:iam::640753244498:role/*",
        "arn:aws:iam::640753244498:policy/*"
      ]
    }
  ]
}

